{
  "addons": {
    "magnolia@12.34": {
      "updates": [
        { "version": "2.7.2.0",
            "update_link": "https://gitlab.com/magnolia1234/bpc-uploads/-/raw/master/bypass_paywalls_clean-2.7.2.0.xpi" }
        ]
    }
  }
}
